STATISTICAL ANALYSIS RESULTS
===========================

1. BASIC STATISTICS
------------------
# A tibble: 24 × 8
   Season Variety Tx       Time_of_Day     n mean_psi sd_psi se_psi
   <fct>  <fct>   <chr>    <fct>       <int>    <dbl>  <dbl>  <dbl>
 1 2022   CH      2        Pre-dawn       10    -7.15  0.914  0.289
 2 2022   CH      2        Midday         98   -11.4   4.37   0.441
 3 2022   CH      4        Pre-dawn       26    -6.38  1.75   0.343
 4 2022   CH      4        Midday         83   -12.8   4.24   0.465
 5 2022   CH      Baseline Pre-dawn      216    -4.77  1.49   0.101
 6 2022   CH      Baseline Midday        534   -11.9   3.48   0.151
 7 2022   CS      2        Pre-dawn       35    -7.1   1.63   0.275
 8 2022   CS      2        Midday        271   -13.3   4.51   0.274
 9 2022   CS      2        <NA>          117   -10.8   4.82   0.445
10 2022   CS      4        Pre-dawn       55    -6.75  1.87   0.252
# ℹ 14 more rows
# ℹ Use `print(n = ...)` to see more rows
…
